com\example\task2\db\service\DbLogService.class
com\example\task2\exception\GlobalExceptionHandler.class
com\example\task2\db\repository\DbLockRepository.class
com\example\task2\db\service\DbLogServiceImpl.class
com\example\task2\controllers\dto\ResponseError.class
com\example\task2\db\entity\DbLog.class
com\example\task2\controllers\dto\CleaningDto.class
com\example\task2\db\service\DbLockService.class
com\example\task2\db\repository\DbCreateTestObjRepository.class
com\example\task2\controllers\dto\RecreateTestObjectDto.class
com\example\task2\db\entity\DbLock.class
com\example\task2\db\service\DbTableServiceImpl.class
com\example\task2\controllers\dto\ResponseInfo.class
com\example\task2\db\repository\DbLogRepository.class
com\example\task2\exec\Executor.class
com\example\task2\Task2Application.class
com\example\task2\db\service\DbCreateTestObjectService.class
com\example\task2\exception\InternalServerErrorException.class
com\example\task2\config\SwaggerConfig.class
com\example\task2\controllers\WebApiConroller.class
com\example\task2\db\service\DbCreateTestObjectServiceImpl.class
com\example\task2\db\service\DbTableService.class
com\example\task2\db\service\DbLockServiceImpl.class
